<svg width="576" height="512" xmlns="http://www.w3.org/2000/svg">
 <!--! Font Awesome Pro 6.0.0-alpha3 by @fontawesome - https://fontawesome.com License - https://fontawesome.com/license (Commercial License) -->

 <g>
  <title>Layer 1</title>
  <path fill="#a3be8c" id="svg_1" d="m48,352l0,-192c0,-8.822 7.178,-16 16,-16l106.6,0l42.3,-48l-148.9,0c-35.35,0 -64,28.7 -64,64l0,192c0,35.35 28.65,64 64,64l73.87,0l17.29,-48l-91.16,0c-8.82,0 -16,-7.2 -16,-16zm496,-160l0,-32c0,-35.35 -28.65,-64 -64,-64l-73.87,0l-17.29,48l91.16,0c8.822,0 16,7.178 16,16l0,192c0,8.822 -7.178,16 -16,16l-106.6,0l-42.3,48l148.9,0c35.35,0 64,-28.65 64,-64l0,-32c17.67,0 32,-14.33 32,-32l0,-64c0,-17.7 -14.3,-32 -32,-32zm-146.1,54.1c-4.8,-8.6 -12.5,-14.1 -21.9,-14.1l-69.84,0l60.44,-167.9c3.906,-10.84 -0.4687,-22.92 -10.38,-28.78c-9.906,-5.844 -22.59,-3.875 -30.25,4.797l-176,200c-6.17,7.083 -7.67,17.183 -3.87,25.783c3,8.6 12.5,14.1 21.9,14.1l69.84,0l-60.44,167.9c-3.906,10.84 0.4687,22.92 10.38,28.78c3.82,2.22 8.02,3.32 12.22,3.32c6.688,0 13.31,-2.812 18.03,-8.141l176,-200c6.27,-7.059 7.77,-17.159 3.87,-25.759z"/>
 </g>
</svg>