<svg width="576" height="512" xmlns="http://www.w3.org/2000/svg">
 <!--! Font Awesome Pro 6.0.0-alpha3 by @fontawesome - https://fontawesome.com License - https://fontawesome.com/license (Commercial License) -->

 <g>
  <title>Layer 1</title>
  <path d="m96,320l352,0l0,-128l-352,0l0,128zm448,-128l0,-32c0,-35.35 -28.65,-64 -64,-64l-416,0c-35.35,0 -64,28.7 -64,64l0,192c0,35.35 28.65,64 64,64l416,0c35.35,0 64,-28.65 64,-64l0,-32c17.67,0 32,-14.33 32,-32l0,-64c0,-17.7 -14.3,-32 -32,-32zm-48,160c0,8.822 -7.178,16 -16,16l-416,0c-8.822,0 -16,-7.178 -16,-16l0,-192c0,-8.822 7.178,-16 16,-16l416,0c8.822,0 16,7.178 16,16l0,192z" id="svg_1" fill="#ebcb8b"/>
 </g>
</svg>