<svg version="1.1" xmlns="http://www.w3.org/2000/svg" xmlns:xlink="http://www.w3.org/1999/xlink" style="" xml:space="preserve" width="512" height="512"><rect id="backgroundrect" width="100%" height="100%" x="0" y="0" fill="none" stroke="none" style="--darkreader-inline-stroke: none;" data-darkreader-inline-stroke=""/>
















<g class="currentLayer" style=""><title>Layer 1</title><g id="svg_1" class="" fill-opacity="1" fill="#88c0d0" style="--darkreader-inline-fill: #2b5d6c;" data-darkreader-inline-fill="">
	<path d="M448,224c0-17.672-14.328-32-32-32s-32,14.328-32,32c0,70.578-57.422,128-128,128s-128-57.422-128-128   c0-17.672-14.328-32-32-32s-32,14.328-32,32c0,94.945,69.336,173.801,160,189.109V448h-16c-17.672,0-32,14.328-32,32v32h160v-32   c0-17.672-14.328-32-32-32h-16v-34.891C378.664,397.801,448,318.945,448,224z" id="svg_2" fill="#88c0d0" style="--darkreader-inline-fill: #2b5d6c;" data-darkreader-inline-fill=""/>
	<path d="M352,96c0-53.02-42.98-96-96-96s-96,42.98-96,96v48h192V96z" id="svg_3" fill="#88c0d0" style="--darkreader-inline-fill: #2b5d6c;" data-darkreader-inline-fill=""/>
	<path d="M256,320c53.02,0,96-42.98,96-96v-48H160v48C160,277.02,202.98,320,256,320z" id="svg_4" fill="#88c0d0" style="--darkreader-inline-fill: #2b5d6c;" data-darkreader-inline-fill=""/>
</g><g id="svg_5">
</g><g id="svg_6">
</g><g id="svg_7">
</g><g id="svg_8">
</g><g id="svg_9">
</g><g id="svg_10">
</g><g id="svg_11">
</g><g id="svg_12">
</g><g id="svg_13">
</g><g id="svg_14">
</g><g id="svg_15">
</g><g id="svg_16">
</g><g id="svg_17">
</g><g id="svg_18">
</g><g id="svg_19">
</g></g></svg>