{
    "editor.fontWeight": "normal",
    "editor.fontSize": 16,
    "editor.fontLigatures": true,
    "editor.tabSize": 4,
    "files.autoSave": "afterDelay",
    "editor.fontFamily": "Fira Code",

    "[c]":{
        "editor.formatOnSave": true,
        "editor.defaultFormatter": "xaver.clang-format",
    },
    "[javascript]": {
        "editor.tabSize": 4,
        "editor.formatOnSave": true,
        "editor.defaultFormatter": "HookyQR.beautify",
        "editor.suggest.showFiles": false,
    },
    "[java]": {
        "editor.suggest.snippetsPreventQuickSuggestions": false,
        "editor.formatOnSave": true,
        "editor.defaultFormatter": "xaver.clang-format",
    },

    "workbench.iconTheme": "material-icon-theme",
    "security.workspace.trust.untrustedFiles": "open",
    "explorer.confirmDragAndDrop": false,
    "files.exclude": {
        "**/.classpath": true,
        "**/.project": true,
        "**/.settings": true,
        "**/.factorypath": true
    },
    "liveServer.settings.donotShowInfoMsg": true
}